Touring tidyverse
…
---

However, consider following:

.pull-left[

```r
starwars %>% select(height)
```

```
## # A tibble: 87 x 1
##    height
##     <int>
##  1    172
##  2    167
##  3     96
##  4    202
##  5    150
##  6    178
##  7    165
##  8     97
##  9    183
## 10    182
## # … with 77 more rows
```
]
.pull-right[

```r
starwars %>% transmute(height)
```

```
## # A tibble: 87 x 1
##    height
##     <int>
##  1    172
##  2    167
##  3     96
##  4    202
##  5    150
##  6    178
##  7    165
##  8     97
##  9    183
## 10    182
## # … with 77 more rows
```
]

---

.pull-left[

```r
starwars %>% select(1)
```

```
## # A tibble: 87 x 1
##    name              
##    <chr>             
##  1 Luke Skywalker    
##  2 C-3PO             
##  3 R2-D2             
##  4 Darth Vader       
##  5 Leia Organa       
##  6 Owen Lars         
##  7 Beru Whitesun lars
##  8 R5-D4             
##  9 Biggs Darklighter 
## 10 Obi-Wan Kenobi    
## # … with 77 more rows
```
]
.pull-right[

```r
starwars %>% transmute(1)
```

```
## # A tibble: 87 x 1
##      `1`
##    <dbl>
##  1     1
##  2     1
##  3     1
##  4     1
##  5     1
##  6     1
##  7     1
##  8     1
##  9     1
## 10     1
## # … with 77 more rows
```
]

---
# Passing selections

```r
starwars %>%
  group_by_at(vars(ends_with("color")))
```

```
## # A tibble: 87 x 13
## # Groups:   hair_color, skin_color, eye_color [67]
##    name  height  mass hair_color skin_color eye_color birth_year gender
##    <chr>  <int> <dbl> <chr>      <chr>      <chr>          <dbl> <chr> 
##  1 Luke…    172    77 blond      fair       blue            19   male  
##  2 C-3PO    167    75 <NA>       gold       yellow         112   <NA>  
##  3 R2-D2     96    32 <NA>       white, bl… red             33   <NA>  
##  4 Dart…    202   136 none       white      yellow          41.9 male  
##  5 Leia…    150    49 brown      light      brown           19   female
##  6 Owen…    178   120 brown, gr… light      blue            52   male  
##  7 Beru…    165    75 brown      light      blue            47   female
##  8 R5-D4     97    32 <NA>       white, red red             NA   <NA>  
##  9 Bigg…    183    84 black      light      brown           24   male  
## 10 Obi-…    182    77 auburn, w… fair       blue-gray       57   male  
## # … with 77 more rows, and 5 more variables: homeworld <chr>,
## #   species <chr>, films <list>, vehicles <list>, starships <list>
```
…
